%YAML 1.1
%TAG !u! tag:unity3d.com,2011:
--- !u!1001 &100100000
Prefab:
  m_ObjectHideFlags: 1
  serializedVersion: 2
  m_Modification:
    m_TransformParent: {fileID: 0}
    m_Modifications: []
    m_RemovedComponents: []
  m_ParentPrefab: {fileID: 0}
  m_RootGameObject: {fileID: 1254192160838608}
  m_IsPrefabParent: 1
--- !u!1 &1254192160838608
GameObject:
  m_ObjectHideFlags: 0
  m_PrefabParentObject: {fileID: 0}
  m_PrefabInternal: {fileID: 100100000}
  serializedVersion: 5
  m_Component:
  - component: {fileID: 4848208099039932}
  - component: {fileID: 114866372945190662}
  m_Layer: 0
  m_Name: stage02
  m_TagString: Untagged
  m_Icon: {fileID: 0}
  m_NavMeshLayer: 0
  m_StaticEditorFlags: 0
  m_IsActive: 1
--- !u!4 &4848208099039932
Transform:
  m_ObjectHideFlags: 1
  m_PrefabParentObject: {fileID: 0}
  m_PrefabInternal: {fileID: 100100000}
  m_GameObject: {fileID: 1254192160838608}
  m_LocalRotation: {x: 0, y: 0, z: 0, w: 1}
  m_LocalPosition: {x: 0.5794256, y: -1.3263958, z: -0.16824818}
  m_LocalScale: {x: 1, y: 1, z: 1}
  m_Children: []
  m_Father: {fileID: 0}
  m_RootOrder: 0
  m_LocalEulerAnglesHint: {x: 0, y: 0, z: 0}
--- !u!114 &114866372945190662
MonoBehaviour:
  m_ObjectHideFlags: 1
  m_PrefabParentObject: {fileID: 0}
  m_PrefabInternal: {fileID: 100100000}
  m_GameObject: {fileID: 1254192160838608}
  m_Enabled: 1
  m_EditorHideFlags: 0
  m_Script: {fileID: 11500000, guid: 42d9a565c2cb2c741b295026786e7adc, type: 3}
  m_Name: 
  m_EditorClassIdentifier: 
  stageIndex: 1
  EnemyList:
  - {fileID: 1274806308727900, guid: d148761b056a07b42acbfeb50df59b09, type: 2}
  - {fileID: 1838309022392772, guid: 7f8270e75d076534daf503ed2b565aba, type: 2}
  - {fileID: 1516465963058034, guid: 6840d18bd01850944b5d26842d4f055a, type: 2}
  - {fileID: 1323730010037674, guid: c20b6f10ce724b442a6cdbd8607a0a25, type: 2}
  - {fileID: 1619355306867472, guid: 57c10ef8449eac046a25c0c00280a14c, type: 2}
  - {fileID: 1636293013256404, guid: ccddbed26657ec14bae1209e9c12d60c, type: 2}
  - {fileID: 1720629376750464, guid: 7815b06ca82ad284e9407e365f9caa52, type: 2}
  - {fileID: 1549754938468208, guid: abef8aeacac48fb4a86204b01843354e, type: 2}
  - {fileID: 1494550017830178, guid: 23725f331db81d24ab878f88ff87d949, type: 2}
  - {fileID: 1123464778470226, guid: 677dba524fd0c094cbc847d2bfc47da8, type: 2}
  currentWave: 0
  isNext: 1
  isCleare: 0
