%YAML 1.1
%TAG !u! tag:unity3d.com,2011:
--- !u!1045 &1
EditorBuildSettings:
  m_ObjectHideFlags: 0
  serializedVersion: 2
  m_Scenes:
  - enabled: 1
    path: Assets/Resource/makino/Title.unity
    guid: 6fb91072d9d92bd4e9e80855a5267a10
  - enabled: 1
    path: Assets/Main.unity
    guid: d68b0762aa8f754468bd9f5de4d27943
  - enabled: 1
    path: Assets/Resource/makino/Result.unity
    guid: 0df5830d17688054f91ae0a75ad521ec
  - enabled: 1
    path: Assets/Resource/makino/Stage.unity
    guid: 209ebfd4fa8c480438bc9b5f061829e5
