%YAML 1.1
%TAG !u! tag:unity3d.com,2011:
--- !u!29 &1
OcclusionCullingSettings:
  m_ObjectHideFlags: 0
  serializedVersion: 2
  m_OcclusionBakeSettings:
    smallestOccluder: 5
    smallestHole: 0.25
    backfaceThreshold: 100
  m_SceneGUID: 00000000000000000000000000000000
  m_OcclusionCullingData: {fileID: 0}
--- !u!104 &2
RenderSettings:
  m_ObjectHideFlags: 0
  serializedVersion: 8
  m_Fog: 0
  m_FogColor: {r: 0.5, g: 0.5, b: 0.5, a: 1}
  m_FogMode: 3
  m_FogDensity: 0.01
  m_LinearFogStart: 0
  m_LinearFogEnd: 300
  m_AmbientSkyColor: {r: 0.30817473, g: 0.30893984, b: 0.41911763, a: 1}
  m_AmbientEquatorColor: {r: 0.114, g: 0.125, b: 0.133, a: 1}
  m_AmbientGroundColor: {r: 0.047, g: 0.043, b: 0.035, a: 1}
  m_AmbientIntensity: 1
  m_AmbientMode: 3
  m_SubtractiveShadowColor: {r: 0.42, g: 0.478, b: 0.627, a: 1}
  m_SkyboxMaterial: {fileID: 10304, guid: 0000000000000000f000000000000000, type: 0}
  m_HaloStrength: 0.5
  m_FlareStrength: 1
  m_FlareFadeSpeed: 3
  m_HaloTexture: {fileID: 0}
  m_SpotCookie: {fileID: 10001, guid: 0000000000000000e000000000000000, type: 0}
  m_DefaultReflectionMode: 0
  m_DefaultReflectionResolution: 128
  m_ReflectionBounces: 1
  m_ReflectionIntensity: 1
  m_CustomReflection: {fileID: 0}
  m_Sun: {fileID: 0}
  m_IndirectSpecularColor: {r: 0, g: 0, b: 0, a: 1}
--- !u!157 &3
LightmapSettings:
  m_ObjectHideFlags: 0
  serializedVersion: 11
  m_GIWorkflowMode: 0
  m_GISettings:
    serializedVersion: 2
    m_BounceScale: 1
    m_IndirectOutputScale: 1
    m_AlbedoBoost: 1
    m_TemporalCoherenceThreshold: 1
    m_EnvironmentLightingMode: 0
    m_EnableBakedLightmaps: 1
    m_EnableRealtimeLightmaps: 1
  m_LightmapEditorSettings:
    serializedVersion: 9
    m_Resolution: 2
    m_BakeResolution: 40
    m_TextureWidth: 1024
    m_TextureHeight: 1024
    m_AO: 0
    m_AOMaxDistance: 1
    m_CompAOExponent: 0
    m_CompAOExponentDirect: 0
    m_Padding: 2
    m_LightmapParameters: {fileID: 0}
    m_LightmapsBakeMode: 1
    m_TextureCompression: 1
    m_FinalGather: 0
    m_FinalGatherFiltering: 1
    m_FinalGatherRayCount: 1024
    m_ReflectionCompression: 2
    m_MixedBakeMode: 1
    m_BakeBackend: 0
    m_PVRSampling: 1
    m_PVRDirectSampleCount: 32
    m_PVRSampleCount: 500
    m_PVRBounces: 2
    m_PVRFilterTypeDirect: 0
    m_PVRFilterTypeIndirect: 0
    m_PVRFilterTypeAO: 0
    m_PVRFilteringMode: 0
    m_PVRCulling: 1
    m_PVRFilteringGaussRadiusDirect: 1
    m_PVRFilteringGaussRadiusIndirect: 5
    m_PVRFilteringGaussRadiusAO: 2
    m_PVRFilteringAtrousPositionSigmaDirect: 0.5
    m_PVRFilteringAtrousPositionSigmaIndirect: 2
    m_PVRFilteringAtrousPositionSigmaAO: 1
  m_LightingDataAsset: {fileID: 0}
  m_UseShadowmask: 0
--- !u!196 &4
NavMeshSettings:
  serializedVersion: 2
  m_ObjectHideFlags: 0
  m_BuildSettings:
    serializedVersion: 2
    agentTypeID: 0
    agentRadius: 0.5
    agentHeight: 2
    agentSlope: 45
    agentClimb: 0.4
    ledgeDropHeight: 0
    maxJumpAcrossDistance: 0
    minRegionArea: 2
    manualCellSize: 0
    cellSize: 0.16666667
    manualTileSize: 0
    tileSize: 256
    accuratePlacement: 0
    debug:
      m_Flags: 0
  m_NavMeshData: {fileID: 0}
--- !u!1 &95223230
GameObject:
  m_ObjectHideFlags: 0
  m_PrefabParentObject: {fileID: 149832, guid: 9f4313a771e05c64d8da7ae6bd19a19f, type: 2}
  m_PrefabInternal: {fileID: 1879720302}
  serializedVersion: 5
  m_Component:
  - component: {fileID: 95223231}
  m_Layer: 0
  m_Name: Bip001 L Forearm
  m_TagString: Untagged
  m_Icon: {fileID: 0}
  m_NavMeshLayer: 0
  m_StaticEditorFlags: 0
  m_IsActive: 1
--- !u!4 &95223231
Transform:
  m_ObjectHideFlags: 0
  m_PrefabParentObject: {fileID: 477970, guid: 9f4313a771e05c64d8da7ae6bd19a19f, type: 2}
  m_PrefabInternal: {fileID: 1879720302}
  m_GameObject: {fileID: 95223230}
  m_LocalRotation: {x: -0.0000000033161611, y: -0.000000060236644, z: 0.099833444,
    w: 0.9950042}
  m_LocalPosition: {x: -0.2977878, y: -0.000000012111664, z: 0}
  m_LocalScale: {x: 0.99999994, y: 1, z: 1}
  m_Children:
  - {fileID: 324350001}
  m_Father: {fileID: 1414392495}
  m_RootOrder: 0
  m_LocalEulerAnglesHint: {x: 0, y: 0, z: 0}
--- !u!1 &108957416
GameObject:
  m_ObjectHideFlags: 0
  m_PrefabParentObject: {fileID: 189220, guid: 9f4313a771e05c64d8da7ae6bd19a19f, type: 2}
  m_PrefabInternal: {fileID: 1879720302}
  serializedVersion: 5
  m_Component:
  - component: {fileID: 108957417}
  m_Layer: 0
  m_Name: Bip001 R Hand
  m_TagString: Untagged
  m_Icon: {fileID: 0}
  m_NavMeshLayer: 0
  m_StaticEditorFlags: 0
  m_IsActive: 1
--- !u!4 &108957417
Transform:
  m_ObjectHideFlags: 0
  m_PrefabParentObject: {fileID: 411690, guid: 9f4313a771e05c64d8da7ae6bd19a19f, type: 2}
  m_PrefabInternal: {fileID: 1879720302}
  m_GameObject: {fileID: 108957416}
  m_LocalRotation: {x: 0.70640385, y: -0.02440202, z: -0.024421396, w: 0.7069666}
  m_LocalPosition: {x: -0.22806452, y: 0, z: 0}
  m_LocalScale: {x: 1, y: 1.0000001, z: 1.0000001}
  m_Children: []
  m_Father: {fileID: 946395197}
  m_RootOrder: 0
  m_LocalEulerAnglesHint: {x: 0, y: 0, z: 0}
--- !u!1 &324350000
GameObject:
  m_ObjectHideFlags: 0
  m_PrefabParentObject: {fileID: 107698, guid: 9f4313a771e05c64d8da7ae6bd19a19f, type: 2}
  m_PrefabInternal: {fileID: 1879720302}
  serializedVersion: 5
  m_Component:
  - component: {fileID: 324350001}
  m_Layer: 0
  m_Name: Bip001 L Hand
  m_TagString: Untagged
  m_Icon: {fileID: 0}
  m_NavMeshLayer: 0
  m_StaticEditorFlags: 0
  m_IsActive: 1
--- !u!4 &324350001
Transform:
  m_ObjectHideFlags: 0
  m_PrefabParentObject: {fileID: 457934, guid: 9f4313a771e05c64d8da7ae6bd19a19f, type: 2}
  m_PrefabInternal: {fileID: 1879720302}
  m_GameObject: {fileID: 324350000}
  m_LocalRotation: {x: -0.70640385, y: 0.024401998, z: -0.024421416, w: 0.7069666}
  m_LocalPosition: {x: -0.22806446, y: 0, z: 0}
  m_LocalScale: {x: 0.99999994, y: 1, z: 1}
  m_Children: []
  m_Father: {fileID: 95223231}
  m_RootOrder: 0
  m_LocalEulerAnglesHint: {x: 0, y: 0, z: 0}
--- !u!1 &347705510
GameObject:
  m_ObjectHideFlags: 0
  m_PrefabParentObject: {fileID: 125626, guid: 9f4313a771e05c64d8da7ae6bd19a19f, type: 2}
  m_PrefabInternal: {fileID: 1879720302}
  serializedVersion: 5
  m_Component:
  - component: {fileID: 347705511}
  m_Layer: 0
  m_Name: Bip001 Head
  m_TagString: Untagged
  m_Icon: {fileID: 0}
  m_NavMeshLayer: 0
  m_StaticEditorFlags: 0
  m_IsActive: 1
--- !u!4 &347705511
Transform:
  m_ObjectHideFlags: 0
  m_PrefabParentObject: {fileID: 420612, guid: 9f4313a771e05c64d8da7ae6bd19a19f, type: 2}
  m_PrefabInternal: {fileID: 1879720302}
  m_GameObject: {fileID: 347705510}
  m_LocalRotation: {x: -2.5800954e-13, y: -0.00000043339293, z: 0.15625714, w: 0.98771644}
  m_LocalPosition: {x: -0.07070935, y: 0.0149220545, z: 0.000000022814248}
  m_LocalScale: {x: 1, y: 1, z: 1}
  m_Children:
  - {fileID: 1981465303}
  m_Father: {fileID: 1303988566}
  m_RootOrder: 0
  m_LocalEulerAnglesHint: {x: 0, y: 0, z: 0}
--- !u!1 &407155093
GameObject:
  m_ObjectHideFlags: 0
  m_PrefabParentObject: {fileID: 129180, guid: 9f4313a771e05c64d8da7ae6bd19a19f, type: 2}
  m_PrefabInternal: {fileID: 1879720302}
  serializedVersion: 5
  m_Component:
  - component: {fileID: 407155094}
  m_Layer: 0
  m_Name: Bip001 Spine
  m_TagString: Untagged
  m_Icon: {fileID: 0}
  m_NavMeshLayer: 0
  m_StaticEditorFlags: 0
  m_IsActive: 1
--- !u!4 &407155094
Transform:
  m_ObjectHideFlags: 0
  m_PrefabParentObject: {fileID: 465924, guid: 9f4313a771e05c64d8da7ae6bd19a19f, type: 2}
  m_PrefabInternal: {fileID: 1879720302}
  m_GameObject: {fileID: 407155093}
  m_LocalRotation: {x: -0.000002080476, y: 0.000000693676, z: -0.000398159, w: 0.99999994}
  m_LocalPosition: {x: -0.11267442, y: -0.0002882485, z: 0.00000015665667}
  m_LocalScale: {x: 1, y: 0.99999994, z: 0.99999994}
  m_Children:
  - {fileID: 1069713804}
  - {fileID: 1303988566}
  - {fileID: 1084243612}
  m_Father: {fileID: 420402290}
  m_RootOrder: 2
  m_LocalEulerAnglesHint: {x: 0, y: 0, z: 0}
--- !u!1 &420402289
GameObject:
  m_ObjectHideFlags: 0
  m_PrefabParentObject: {fileID: 100436, guid: 9f4313a771e05c64d8da7ae6bd19a19f, type: 2}
  m_PrefabInternal: {fileID: 1879720302}
  serializedVersion: 5
  m_Component:
  - component: {fileID: 420402290}
  m_Layer: 0
  m_Name: Bip001 Pelvis
  m_TagString: Untagged
  m_Icon: {fileID: 0}
  m_NavMeshLayer: 0
  m_StaticEditorFlags: 0
  m_IsActive: 1
--- !u!4 &420402290
Transform:
  m_ObjectHideFlags: 0
  m_PrefabParentObject: {fileID: 402570, guid: 9f4313a771e05c64d8da7ae6bd19a19f, type: 2}
  m_PrefabInternal: {fileID: 1879720302}
  m_GameObject: {fileID: 420402289}
  m_LocalRotation: {x: -0.5, y: 0.5, z: 0.4999993, w: 0.5000007}
  m_LocalPosition: {x: 0, y: 0, z: 0}
  m_LocalScale: {x: 1, y: 0.99999994, z: 0.99999994}
  m_Children:
  - {fileID: 1733908053}
  - {fileID: 1744219756}
  - {fileID: 407155094}
  m_Father: {fileID: 1304768617}
  m_RootOrder: 1
  m_LocalEulerAnglesHint: {x: 0, y: 0, z: 0}
--- !u!1 &456729099
GameObject:
  m_ObjectHideFlags: 0
  m_PrefabParentObject: {fileID: 117622, guid: 9f4313a771e05c64d8da7ae6bd19a19f, type: 2}
  m_PrefabInternal: {fileID: 1879720302}
  serializedVersion: 5
  m_Component:
  - component: {fileID: 456729100}
  m_Layer: 0
  m_Name: Bip001 L Toe0Nub
  m_TagString: Untagged
  m_Icon: {fileID: 0}
  m_NavMeshLayer: 0
  m_StaticEditorFlags: 0
  m_IsActive: 1
--- !u!4 &456729100
Transform:
  m_ObjectHideFlags: 0
  m_PrefabParentObject: {fileID: 495084, guid: 9f4313a771e05c64d8da7ae6bd19a19f, type: 2}
  m_PrefabInternal: {fileID: 1879720302}
  m_GameObject: {fileID: 456729099}
  m_LocalRotation: {x: 9.553441e-16, y: 1.75553e-30, z: 1, w: -1.8375893e-15}
  m_LocalPosition: {x: -0.010443561, y: 0, z: 0}
  m_LocalScale: {x: -0.99999994, y: -1, z: -0.99999994}
  m_Children: []
  m_Father: {fileID: 1954267202}
  m_RootOrder: 0
  m_LocalEulerAnglesHint: {x: 0, y: 0, z: 0}
--- !u!1 &492412196
GameObject:
  m_ObjectHideFlags: 0
  m_PrefabParentObject: {fileID: 134230, guid: 9f4313a771e05c64d8da7ae6bd19a19f, type: 2}
  m_PrefabInternal: {fileID: 1879720302}
  serializedVersion: 5
  m_Component:
  - component: {fileID: 492412197}
  - component: {fileID: 492412198}
  m_Layer: 0
  m_Name: UD_light_infantry
  m_TagString: Untagged
  m_Icon: {fileID: 0}
  m_NavMeshLayer: 0
  m_StaticEditorFlags: 0
  m_IsActive: 1
--- !u!4 &492412197
Transform:
  m_ObjectHideFlags: 0
  m_PrefabParentObject: {fileID: 498834, guid: 9f4313a771e05c64d8da7ae6bd19a19f, type: 2}
  m_PrefabInternal: {fileID: 1879720302}
  m_GameObject: {fileID: 492412196}
  m_LocalRotation: {x: -0.7071068, y: 0, z: -0, w: 0.7071068}
  m_LocalPosition: {x: 0, y: 0, z: 0}
  m_LocalScale: {x: 1, y: 1, z: 1}
  m_Children: []
  m_Father: {fileID: 1036907934}
  m_RootOrder: 1
  m_LocalEulerAnglesHint: {x: 0, y: 0, z: 0}
--- !u!137 &492412198
SkinnedMeshRenderer:
  m_ObjectHideFlags: 0
  m_PrefabParentObject: {fileID: 13752230, guid: 9f4313a771e05c64d8da7ae6bd19a19f,
    type: 2}
  m_PrefabInternal: {fileID: 1879720302}
  m_GameObject: {fileID: 492412196}
  m_Enabled: 1
  m_CastShadows: 1
  m_ReceiveShadows: 1
  m_DynamicOccludee: 1
  m_MotionVectors: 1
  m_LightProbeUsage: 1
  m_ReflectionProbeUsage: 1
  m_Materials:
  - {fileID: 2100000, guid: 1dc38d9a9bb57a24b9ab5019c651f99d, type: 2}
  m_StaticBatchInfo:
    firstSubMesh: 0
    subMeshCount: 0
  m_StaticBatchRoot: {fileID: 0}
  m_ProbeAnchor: {fileID: 0}
  m_LightProbeVolumeOverride: {fileID: 0}
  m_ScaleInLightmap: 1
  m_PreserveUVs: 0
  m_IgnoreNormalsForChartDetection: 0
  m_ImportantGI: 0
  m_StitchLightmapSeams: 0
  m_SelectedEditorRenderState: 3
  m_MinimumChartSize: 4
  m_AutoUVMaxDistance: 0.5
  m_AutoUVMaxAngle: 89
  m_LightmapParameters: {fileID: 0}
  m_SortingLayerID: 0
  m_SortingLayer: 0
  m_SortingOrder: 0
  serializedVersion: 2
  m_Quality: 0
  m_UpdateWhenOffscreen: 0
  m_SkinnedMotionVectors: 1
  m_Mesh: {fileID: 4300002, guid: f3392e95529ae7540ad53657e3d0ce7d, type: 3}
  m_Bones:
  - {fileID: 2056791661}
  - {fileID: 898494949}
  - {fileID: 1744219756}
  - {fileID: 1497224045}
  - {fileID: 1512868660}
  - {fileID: 1733908053}
  - {fileID: 420402290}
  - {fileID: 1084243612}
  - {fileID: 407155094}
  - {fileID: 946395197}
  - {fileID: 1058852204}
  - {fileID: 347705511}
  - {fileID: 1069713804}
  - {fileID: 95223231}
  - {fileID: 1414392495}
  - {fileID: 108957417}
  - {fileID: 324350001}
  m_BlendShapeWeights: []
  m_RootBone: {fileID: 420402290}
  m_AABB:
    m_Center: {x: -0.035051912, y: 0.2145089, z: 0.12948987}
    m_Extent: {x: 0.7688222, y: 0.668301, z: 0.95111597}
  m_DirtyAABB: 0
--- !u!1 &526086949
GameObject:
  m_ObjectHideFlags: 0
  m_PrefabParentObject: {fileID: 0}
  m_PrefabInternal: {fileID: 0}
  serializedVersion: 5
  m_Component:
  - component: {fileID: 526086952}
  - component: {fileID: 526086951}
  - component: {fileID: 526086950}
  m_Layer: 0
  m_Name: Quad
  m_TagString: Untagged
  m_Icon: {fileID: 0}
  m_NavMeshLayer: 0
  m_StaticEditorFlags: 0
  m_IsActive: 1
--- !u!23 &526086950
MeshRenderer:
  m_ObjectHideFlags: 0
  m_PrefabParentObject: {fileID: 0}
  m_PrefabInternal: {fileID: 0}
  m_GameObject: {fileID: 526086949}
  m_Enabled: 1
  m_CastShadows: 1
  m_ReceiveShadows: 1
  m_DynamicOccludee: 1
  m_MotionVectors: 1
  m_LightProbeUsage: 0
  m_ReflectionProbeUsage: 0
  m_Materials:
  - {fileID: 2100000, guid: cfc4ec4fcf7f1c44ebc04032f02fb499, type: 2}
  m_StaticBatchInfo:
    firstSubMesh: 0
    subMeshCount: 0
  m_StaticBatchRoot: {fileID: 0}
  m_ProbeAnchor: {fileID: 0}
  m_LightProbeVolumeOverride: {fileID: 0}
  m_ScaleInLightmap: 1
  m_PreserveUVs: 1
  m_IgnoreNormalsForChartDetection: 0
  m_ImportantGI: 0
  m_StitchLightmapSeams: 0
  m_SelectedEditorRenderState: 3
  m_MinimumChartSize: 4
  m_AutoUVMaxDistance: 0.5
  m_AutoUVMaxAngle: 89
  m_LightmapParameters: {fileID: 0}
  m_SortingLayerID: 0
  m_SortingLayer: 0
  m_SortingOrder: 0
--- !u!33 &526086951
MeshFilter:
  m_ObjectHideFlags: 0
  m_PrefabParentObject: {fileID: 0}
  m_PrefabInternal: {fileID: 0}
  m_GameObject: {fileID: 526086949}
  m_Mesh: {fileID: 10210, guid: 0000000000000000e000000000000000, type: 0}
--- !u!4 &526086952
Transform:
  m_ObjectHideFlags: 0
  m_PrefabParentObject: {fileID: 0}
  m_PrefabInternal: {fileID: 0}
  m_GameObject: {fileID: 526086949}
  m_LocalRotation: {x: 0.7071068, y: 0, z: 0, w: 0.7071067}
  m_LocalPosition: {x: 0, y: 0, z: 0}
  m_LocalScale: {x: 45.045784, y: 45.045765, z: 45.045765}
  m_Children: []
  m_Father: {fileID: 0}
  m_RootOrder: 2
  m_LocalEulerAnglesHint: {x: 0, y: 0, z: 0}
--- !u!1 &526272220
GameObject:
  m_ObjectHideFlags: 0
  m_PrefabParentObject: {fileID: 169542, guid: 9f4313a771e05c64d8da7ae6bd19a19f, type: 2}
  m_PrefabInternal: {fileID: 1879720302}
  serializedVersion: 5
  m_Component:
  - component: {fileID: 526272221}
  m_Layer: 0
  m_Name: Bip001 R Toe0Nub
  m_TagString: Untagged
  m_Icon: {fileID: 0}
  m_NavMeshLayer: 0
  m_StaticEditorFlags: 0
  m_IsActive: 1
--- !u!4 &526272221
Transform:
  m_ObjectHideFlags: 0
  m_PrefabParentObject: {fileID: 480610, guid: 9f4313a771e05c64d8da7ae6bd19a19f, type: 2}
  m_PrefabInternal: {fileID: 1879720302}
  m_GameObject: {fileID: 526272220}
  m_LocalRotation: {x: 1.6970273e-30, y: -9.553415e-16, z: 1.776357e-15, w: 1}
  m_LocalPosition: {x: -0.010443561, y: 0, z: 0}
  m_LocalScale: {x: 0.99999994, y: 1, z: 0.99999994}
  m_Children: []
  m_Father: {fileID: 684671209}
  m_RootOrder: 0
  m_LocalEulerAnglesHint: {x: 0, y: 0, z: 0}
--- !u!1 &549517834
GameObject:
  m_ObjectHideFlags: 0
  m_PrefabParentObject: {fileID: 140304, guid: 9f4313a771e05c64d8da7ae6bd19a19f, type: 2}
  m_PrefabInternal: {fileID: 1879720302}
  serializedVersion: 5
  m_Component:
  - component: {fileID: 549517835}
  m_Layer: 0
  m_Name: Bip001 Footsteps
  m_TagString: Untagged
  m_Icon: {fileID: 0}
  m_NavMeshLayer: 0
  m_StaticEditorFlags: 0
  m_IsActive: 1
--- !u!4 &549517835
Transform:
  m_ObjectHideFlags: 0
  m_PrefabParentObject: {fileID: 424562, guid: 9f4313a771e05c64d8da7ae6bd19a19f, type: 2}
  m_PrefabInternal: {fileID: 1879720302}
  m_GameObject: {fileID: 549517834}
  m_LocalRotation: {x: 0, y: 0, z: -0.7071063, w: 0.70710725}
  m_LocalPosition: {x: -0, y: 0, z: -0.72924715}
  m_LocalScale: {x: 1, y: 1, z: 1}
  m_Children: []
  m_Father: {fileID: 1304768617}
  m_RootOrder: 0
  m_LocalEulerAnglesHint: {x: 0, y: 0, z: 0}
--- !u!1 &684671208
GameObject:
  m_ObjectHideFlags: 0
  m_PrefabParentObject: {fileID: 170696, guid: 9f4313a771e05c64d8da7ae6bd19a19f, type: 2}
  m_PrefabInternal: {fileID: 1879720302}
  serializedVersion: 5
  m_Component:
  - component: {fileID: 684671209}
  m_Layer: 0
  m_Name: Bip001 R Toe0
  m_TagString: Untagged
  m_Icon: {fileID: 0}
  m_NavMeshLayer: 0
  m_StaticEditorFlags: 0
  m_IsActive: 1
--- !u!4 &684671209
Transform:
  m_ObjectHideFlags: 0
  m_PrefabParentObject: {fileID: 478980, guid: 9f4313a771e05c64d8da7ae6bd19a19f, type: 2}
  m_PrefabInternal: {fileID: 1879720302}
  m_GameObject: {fileID: 684671208}
  m_LocalRotation: {x: -0.00000001545431, y: 0.00000001545431, z: -0.7071068, w: 0.7071068}
  m_LocalPosition: {x: -0.10453752, y: 0.2332749, z: 0.000000012111664}
  m_LocalScale: {x: 0.99999994, y: 1, z: 0.99999994}
  m_Children:
  - {fileID: 526272221}
  m_Father: {fileID: 2056791661}
  m_RootOrder: 0
  m_LocalEulerAnglesHint: {x: 0, y: 0, z: 0}
--- !u!1 &786343986
GameObject:
  m_ObjectHideFlags: 0
  m_PrefabParentObject: {fileID: 0}
  m_PrefabInternal: {fileID: 0}
  serializedVersion: 5
  m_Component:
  - component: {fileID: 786343991}
  - component: {fileID: 786343990}
  - component: {fileID: 786343989}
  - component: {fileID: 786343988}
  - component: {fileID: 786343987}
  m_Layer: 0
  m_Name: Main Camera
  m_TagString: MainCamera
  m_Icon: {fileID: 0}
  m_NavMeshLayer: 0
  m_StaticEditorFlags: 0
  m_IsActive: 1
--- !u!81 &786343987
AudioListener:
  m_ObjectHideFlags: 0
  m_PrefabParentObject: {fileID: 0}
  m_PrefabInternal: {fileID: 0}
  m_GameObject: {fileID: 786343986}
  m_Enabled: 1
--- !u!124 &786343988
Behaviour:
  m_ObjectHideFlags: 0
  m_PrefabParentObject: {fileID: 0}
  m_PrefabInternal: {fileID: 0}
  m_GameObject: {fileID: 786343986}
  m_Enabled: 1
--- !u!92 &786343989
Behaviour:
  m_ObjectHideFlags: 0
  m_PrefabParentObject: {fileID: 0}
  m_PrefabInternal: {fileID: 0}
  m_GameObject: {fileID: 786343986}
  m_Enabled: 1
--- !u!20 &786343990
Camera:
  m_ObjectHideFlags: 0
  m_PrefabParentObject: {fileID: 0}
  m_PrefabInternal: {fileID: 0}
  m_GameObject: {fileID: 786343986}
  m_Enabled: 1
  serializedVersion: 2
  m_ClearFlags: 1
  m_BackGroundColor: {r: 0.19215687, g: 0.3019608, b: 0.4745098, a: 0.019607844}
  m_NormalizedViewPortRect:
    serializedVersion: 2
    x: 0
    y: 0
    width: 1
    height: 1
  near clip plane: 0.3
  far clip plane: 300
  field of view: 40
  orthographic: 0
  orthographic size: 5
  m_Depth: -1
  m_CullingMask:
    serializedVersion: 2
    m_Bits: 4294967295
  m_RenderingPath: -1
  m_TargetTexture: {fileID: 0}
  m_TargetDisplay: 0
  m_TargetEye: 3
  m_HDR: 0
  m_AllowMSAA: 1
  m_ForceIntoRT: 0
  m_OcclusionCulling: 1
  m_StereoConvergence: 10
  m_StereoSeparation: 0.022
--- !u!4 &786343991
Transform:
  m_ObjectHideFlags: 0
  m_PrefabParentObject: {fileID: 0}
  m_PrefabInternal: {fileID: 0}
  m_GameObject: {fileID: 786343986}
  m_LocalRotation: {x: 0.05900677, y: -0.9359319, z: 0.29055583, w: 0.19007127}
  m_LocalPosition: {x: 1.87, y: 3.83, z: 5.11}
  m_LocalScale: {x: 1, y: 1, z: 1}
  m_Children: []
  m_Father: {fileID: 0}
  m_RootOrder: 0
  m_LocalEulerAnglesHint: {x: 0, y: 0, z: 0}
--- !u!1 &898494948
GameObject:
  m_ObjectHideFlags: 0
  m_PrefabParentObject: {fileID: 101892, guid: 9f4313a771e05c64d8da7ae6bd19a19f, type: 2}
  m_PrefabInternal: {fileID: 1879720302}
  serializedVersion: 5
  m_Component:
  - component: {fileID: 898494949}
  m_Layer: 0
  m_Name: Bip001 R Calf
  m_TagString: Untagged
  m_Icon: {fileID: 0}
  m_NavMeshLayer: 0
  m_StaticEditorFlags: 0
  m_IsActive: 1
--- !u!4 &898494949
Transform:
  m_ObjectHideFlags: 0
  m_PrefabParentObject: {fileID: 479846, guid: 9f4313a771e05c64d8da7ae6bd19a19f, type: 2}
  m_PrefabInternal: {fileID: 1879720302}
  m_GameObject: {fileID: 898494948}
  m_LocalRotation: {x: -6.0576955e-10, y: 0.0000000111691545, z: 0.09567885, w: 0.9954123}
  m_LocalPosition: {x: -0.3866459, y: -0.000000001513958, z: 0}
  m_LocalScale: {x: 0.99999994, y: 1, z: 1}
  m_Children:
  - {fileID: 2056791661}
  m_Father: {fileID: 1744219756}
  m_RootOrder: 0
  m_LocalEulerAnglesHint: {x: 0, y: 0, z: 0}
--- !u!1 &946395196
GameObject:
  m_ObjectHideFlags: 0
  m_PrefabParentObject: {fileID: 106952, guid: 9f4313a771e05c64d8da7ae6bd19a19f, type: 2}
  m_PrefabInternal: {fileID: 1879720302}
  serializedVersion: 5
  m_Component:
  - component: {fileID: 946395197}
  m_Layer: 0
  m_Name: Bip001 R Forearm
  m_TagString: Untagged
  m_Icon: {fileID: 0}
  m_NavMeshLayer: 0
  m_StaticEditorFlags: 0
  m_IsActive: 1
--- !u!4 &946395197
Transform:
  m_ObjectHideFlags: 0
  m_PrefabParentObject: {fileID: 411264, guid: 9f4313a771e05c64d8da7ae6bd19a19f, type: 2}
  m_PrefabInternal: {fileID: 1879720302}
  m_GameObject: {fileID: 946395196}
  m_LocalRotation: {x: -0.000000004097195, y: 0.00000005949282, z: 0.099833414, w: 0.9950042}
  m_LocalPosition: {x: -0.29778785, y: 0, z: 0}
  m_LocalScale: {x: 1.0000001, y: 0.99999994, z: 1}
  m_Children:
  - {fileID: 108957417}
  m_Father: {fileID: 1058852204}
  m_RootOrder: 0
  m_LocalEulerAnglesHint: {x: 0, y: 0, z: 0}
--- !u!1 &1036907932
GameObject:
  m_ObjectHideFlags: 0
  m_PrefabParentObject: {fileID: 165424, guid: 9f4313a771e05c64d8da7ae6bd19a19f, type: 2}
  m_PrefabInternal: {fileID: 1879720302}
  serializedVersion: 5
  m_Component:
  - component: {fileID: 1036907934}
  - component: {fileID: 1036907933}
  m_Layer: 0
  m_Name: UD_demo_character
  m_TagString: Untagged
  m_Icon: {fileID: 0}
  m_NavMeshLayer: 0
  m_StaticEditorFlags: 0
  m_IsActive: 1
--- !u!95 &1036907933
Animator:
  serializedVersion: 3
  m_ObjectHideFlags: 0
  m_PrefabParentObject: {fileID: 9542308, guid: 9f4313a771e05c64d8da7ae6bd19a19f,
    type: 2}
  m_PrefabInternal: {fileID: 1879720302}
  m_GameObject: {fileID: 1036907932}
  m_Enabled: 1
  m_Avatar: {fileID: 9000000, guid: f3392e95529ae7540ad53657e3d0ce7d, type: 3}
  m_Controller: {fileID: 0}
  m_CullingMode: 1
  m_UpdateMode: 0
  m_ApplyRootMotion: 1
  m_LinearVelocityBlending: 0
  m_WarningMessage: 
  m_HasTransformHierarchy: 1
  m_AllowConstantClipSamplingOptimization: 1
--- !u!4 &1036907934
Transform:
  m_ObjectHideFlags: 0
  m_PrefabParentObject: {fileID: 403496, guid: 9f4313a771e05c64d8da7ae6bd19a19f, type: 2}
  m_PrefabInternal: {fileID: 1879720302}
  m_GameObject: {fileID: 1036907932}
  m_LocalRotation: {x: 0, y: 0, z: 0, w: 1}
  m_LocalPosition: {x: 0, y: 0, z: 0}
  m_LocalScale: {x: 1, y: 1, z: 1}
  m_Children:
  - {fileID: 1304768617}
  - {fileID: 492412197}
  m_Father: {fileID: 0}
  m_RootOrder: 4
  m_LocalEulerAnglesHint: {x: 0, y: 0, z: 0}
--- !u!1 &1058852203
GameObject:
  m_ObjectHideFlags: 0
  m_PrefabParentObject: {fileID: 177378, guid: 9f4313a771e05c64d8da7ae6bd19a19f, type: 2}
  m_PrefabInternal: {fileID: 1879720302}
  serializedVersion: 5
  m_Component:
  - component: {fileID: 1058852204}
  m_Layer: 0
  m_Name: Bip001 R UpperArm
  m_TagString: Untagged
  m_Icon: {fileID: 0}
  m_NavMeshLayer: 0
  m_StaticEditorFlags: 0
  m_IsActive: 1
--- !u!4 &1058852204
Transform:
  m_ObjectHideFlags: 0
  m_PrefabParentObject: {fileID: 402808, guid: 9f4313a771e05c64d8da7ae6bd19a19f, type: 2}
  m_PrefabInternal: {fileID: 1879720302}
  m_GameObject: {fileID: 1058852203}
  m_LocalRotation: {x: -0.061109297, y: 0.20806454, z: 0.0101710465, w: 0.9761513}
  m_LocalPosition: {x: -0.1631933, y: 0.000000003027916, z: 0.00000009689331}
  m_LocalScale: {x: 0.99999994, y: 1.0000001, z: 1}
  m_Children:
  - {fileID: 946395197}
  m_Father: {fileID: 1084243612}
  m_RootOrder: 0
  m_LocalEulerAnglesHint: {x: 0, y: 0, z: 0}
--- !u!1 &1069713803
GameObject:
  m_ObjectHideFlags: 0
  m_PrefabParentObject: {fileID: 165938, guid: 9f4313a771e05c64d8da7ae6bd19a19f, type: 2}
  m_PrefabInternal: {fileID: 1879720302}
  serializedVersion: 5
  m_Component:
  - component: {fileID: 1069713804}
  m_Layer: 0
  m_Name: Bip001 L Clavicle
  m_TagString: Untagged
  m_Icon: {fileID: 0}
  m_NavMeshLayer: 0
  m_StaticEditorFlags: 0
  m_IsActive: 1
--- !u!4 &1069713804
Transform:
  m_ObjectHideFlags: 0
  m_PrefabParentObject: {fileID: 400368, guid: 9f4313a771e05c64d8da7ae6bd19a19f, type: 2}
  m_PrefabInternal: {fileID: 1879720302}
  m_GameObject: {fileID: 1069713803}
  m_LocalRotation: {x: -0.61052406, y: -0.029295458, z: 0.79114693, w: 0.022105206}
  m_LocalPosition: {x: -0.32833782, y: 0.000026666856, z: 0.06485968}
  m_LocalScale: {x: 1, y: 0.99999994, z: 1}
  m_Children:
  - {fileID: 1414392495}
  m_Father: {fileID: 407155094}
  m_RootOrder: 0
  m_LocalEulerAnglesHint: {x: 0, y: 0, z: 0}
--- !u!1 &1084243611
GameObject:
  m_ObjectHideFlags: 0
  m_PrefabParentObject: {fileID: 190548, guid: 9f4313a771e05c64d8da7ae6bd19a19f, type: 2}
  m_PrefabInternal: {fileID: 1879720302}
  serializedVersion: 5
  m_Component:
  - component: {fileID: 1084243612}
  m_Layer: 0
  m_Name: Bip001 R Clavicle
  m_TagString: Untagged
  m_Icon: {fileID: 0}
  m_NavMeshLayer: 0
  m_StaticEditorFlags: 0
  m_IsActive: 1
--- !u!4 &1084243612
Transform:
  m_ObjectHideFlags: 0
  m_PrefabParentObject: {fileID: 411442, guid: 9f4313a771e05c64d8da7ae6bd19a19f, type: 2}
  m_PrefabInternal: {fileID: 1879720302}
  m_GameObject: {fileID: 1084243611}
  m_LocalRotation: {x: 0.6105242, y: 0.02929325, z: 0.79114705, w: 0.022103515}
  m_LocalPosition: {x: -0.32833782, y: 0.000027027178, z: -0.064859666}
  m_LocalScale: {x: 1.0000001, y: 1, z: 1}
  m_Children:
  - {fileID: 1058852204}
  m_Father: {fileID: 407155094}
  m_RootOrder: 2
  m_LocalEulerAnglesHint: {x: 0, y: 0, z: 0}
--- !u!1 &1263610237
GameObject:
  m_ObjectHideFlags: 0
  m_PrefabParentObject: {fileID: 0}
  m_PrefabInternal: {fileID: 0}
  serializedVersion: 5
  m_Component:
  - component: {fileID: 1263610239}
  - component: {fileID: 1263610238}
  m_Layer: 0
  m_Name: Directional Light
  m_TagString: Untagged
  m_Icon: {fileID: 0}
  m_NavMeshLayer: 0
  m_StaticEditorFlags: 0
  m_IsActive: 1
--- !u!108 &1263610238
Light:
  m_ObjectHideFlags: 0
  m_PrefabParentObject: {fileID: 0}
  m_PrefabInternal: {fileID: 0}
  m_GameObject: {fileID: 1263610237}
  m_Enabled: 1
  serializedVersion: 8
  m_Type: 1
  m_Color: {r: 1, g: 0.88640976, b: 0.74264705, a: 1}
  m_Intensity: 1.6
  m_Range: 10
  m_SpotAngle: 30
  m_CookieSize: 10
  m_Shadows:
    m_Type: 1
    m_Resolution: 3
    m_CustomResolution: -1
    m_Strength: 1
    m_Bias: 0.05
    m_NormalBias: 0.4
    m_NearPlane: 0.2
  m_Cookie: {fileID: 0}
  m_DrawHalo: 0
  m_Flare: {fileID: 0}
  m_RenderMode: 0
  m_CullingMask:
    serializedVersion: 2
    m_Bits: 4294967295
  m_Lightmapping: 4
  m_AreaSize: {x: 1, y: 1}
  m_BounceIntensity: 1
  m_ColorTemperature: 6570
  m_UseColorTemperature: 0
  m_ShadowRadius: 0
  m_ShadowAngle: 0
--- !u!4 &1263610239
Transform:
  m_ObjectHideFlags: 0
  m_PrefabParentObject: {fileID: 0}
  m_PrefabInternal: {fileID: 0}
  m_GameObject: {fileID: 1263610237}
  m_LocalRotation: {x: 0.6125961, y: -0.644908, z: 0.02106116, w: 0.4564824}
  m_LocalPosition: {x: -0.139, y: 6.22, z: 3.349}
  m_LocalScale: {x: 1, y: 1, z: 1}
  m_Children: []
  m_Father: {fileID: 0}
  m_RootOrder: 1
  m_LocalEulerAnglesHint: {x: 0, y: 0, z: 0}
--- !u!1 &1303988565
GameObject:
  m_ObjectHideFlags: 0
  m_PrefabParentObject: {fileID: 163902, guid: 9f4313a771e05c64d8da7ae6bd19a19f, type: 2}
  m_PrefabInternal: {fileID: 1879720302}
  serializedVersion: 5
  m_Component:
  - component: {fileID: 1303988566}
  m_Layer: 0
  m_Name: Bip001 Neck
  m_TagString: Untagged
  m_Icon: {fileID: 0}
  m_NavMeshLayer: 0
  m_StaticEditorFlags: 0
  m_IsActive: 1
--- !u!4 &1303988566
Transform:
  m_ObjectHideFlags: 0
  m_PrefabParentObject: {fileID: 445478, guid: 9f4313a771e05c64d8da7ae6bd19a19f, type: 2}
  m_PrefabInternal: {fileID: 1879720302}
  m_GameObject: {fileID: 1303988565}
  m_LocalRotation: {x: -4.028294e-14, y: 0.00000053819366, z: -0.19404154, w: 0.98099333}
  m_LocalPosition: {x: -0.3911548, y: -0.00621553, z: -0.000000008822272}
  m_LocalScale: {x: 1, y: 1, z: 1}
  m_Children:
  - {fileID: 347705511}
  m_Father: {fileID: 407155094}
  m_RootOrder: 1
  m_LocalEulerAnglesHint: {x: 0, y: 0, z: 0}
--- !u!1 &1304768616
GameObject:
  m_ObjectHideFlags: 0
  m_PrefabParentObject: {fileID: 101976, guid: 9f4313a771e05c64d8da7ae6bd19a19f, type: 2}
  m_PrefabInternal: {fileID: 1879720302}
  serializedVersion: 5
  m_Component:
  - component: {fileID: 1304768617}
  m_Layer: 0
  m_Name: Bip001
  m_TagString: Untagged
  m_Icon: {fileID: 0}
  m_NavMeshLayer: 0
  m_StaticEditorFlags: 0
  m_IsActive: 1
--- !u!4 &1304768617
Transform:
  m_ObjectHideFlags: 0
  m_PrefabParentObject: {fileID: 484494, guid: 9f4313a771e05c64d8da7ae6bd19a19f, type: 2}
  m_PrefabInternal: {fileID: 1879720302}
  m_GameObject: {fileID: 1304768616}
  m_LocalRotation: {x: -0.50000036, y: 0.49999964, z: 0.49999964, w: 0.50000036}
  m_LocalPosition: {x: 0, y: 0.73484915, z: -0.049094923}
  m_LocalScale: {x: 0.99999994, y: 0.99999994, z: 1}
  m_Children:
  - {fileID: 549517835}
  - {fileID: 420402290}
  m_Father: {fileID: 1036907934}
  m_RootOrder: 0
  m_LocalEulerAnglesHint: {x: 0, y: 0, z: 0}
--- !u!1 &1414392494
GameObject:
  m_ObjectHideFlags: 0
  m_PrefabParentObject: {fileID: 172082, guid: 9f4313a771e05c64d8da7ae6bd19a19f, type: 2}
  m_PrefabInternal: {fileID: 1879720302}
  serializedVersion: 5
  m_Component:
  - component: {fileID: 1414392495}
  m_Layer: 0
  m_Name: Bip001 L UpperArm
  m_TagString: Untagged
  m_Icon: {fileID: 0}
  m_NavMeshLayer: 0
  m_StaticEditorFlags: 0
  m_IsActive: 1
--- !u!4 &1414392495
Transform:
  m_ObjectHideFlags: 0
  m_PrefabParentObject: {fileID: 422790, guid: 9f4313a771e05c64d8da7ae6bd19a19f, type: 2}
  m_PrefabInternal: {fileID: 1879720302}
  m_GameObject: {fileID: 1414392494}
  m_LocalRotation: {x: 0.0611093, y: -0.20806454, z: 0.010171064, w: 0.9761513}
  m_LocalPosition: {x: -0.1631933, y: 0.000000003027916, z: -0.00000009689331}
  m_LocalScale: {x: 1, y: 1.0000001, z: 1.0000001}
  m_Children:
  - {fileID: 95223231}
  m_Father: {fileID: 1069713804}
  m_RootOrder: 0
  m_LocalEulerAnglesHint: {x: 0, y: 0, z: 0}
--- !u!1 &1497224044
GameObject:
  m_ObjectHideFlags: 0
  m_PrefabParentObject: {fileID: 142816, guid: 9f4313a771e05c64d8da7ae6bd19a19f, type: 2}
  m_PrefabInternal: {fileID: 1879720302}
  serializedVersion: 5
  m_Component:
  - component: {fileID: 1497224045}
  m_Layer: 0
  m_Name: Bip001 L Foot
  m_TagString: Untagged
  m_Icon: {fileID: 0}
  m_NavMeshLayer: 0
  m_StaticEditorFlags: 0
  m_IsActive: 1
--- !u!4 &1497224045
Transform:
  m_ObjectHideFlags: 0
  m_PrefabParentObject: {fileID: 401094, guid: 9f4313a771e05c64d8da7ae6bd19a19f, type: 2}
  m_PrefabInternal: {fileID: 1879720302}
  m_GameObject: {fileID: 1497224044}
  m_LocalRotation: {x: 0.024848638, y: 0.039986257, z: -0.074062906, w: 0.99614173}
  m_LocalPosition: {x: -0.24324632, y: 0, z: 0.000000012111664}
  m_LocalScale: {x: 1.0000001, y: 1, z: 1.0000001}
  m_Children:
  - {fileID: 1954267202}
  m_Father: {fileID: 1512868660}
  m_RootOrder: 0
  m_LocalEulerAnglesHint: {x: 0, y: 0, z: 0}
--- !u!1 &1512868659
GameObject:
  m_ObjectHideFlags: 0
  m_PrefabParentObject: {fileID: 186166, guid: 9f4313a771e05c64d8da7ae6bd19a19f, type: 2}
  m_PrefabInternal: {fileID: 1879720302}
  serializedVersion: 5
  m_Component:
  - component: {fileID: 1512868660}
  m_Layer: 0
  m_Name: Bip001 L Calf
  m_TagString: Untagged
  m_Icon: {fileID: 0}
  m_NavMeshLayer: 0
  m_StaticEditorFlags: 0
  m_IsActive: 1
--- !u!4 &1512868660
Transform:
  m_ObjectHideFlags: 0
  m_PrefabParentObject: {fileID: 467566, guid: 9f4313a771e05c64d8da7ae6bd19a19f, type: 2}
  m_PrefabInternal: {fileID: 1879720302}
  m_GameObject: {fileID: 1512868659}
  m_LocalRotation: {x: 1.422446e-10, y: -0.000000011213707, z: 0.09567885, w: 0.9954123}
  m_LocalPosition: {x: -0.38664594, y: 0.000000001513958, z: 0}
  m_LocalScale: {x: 1, y: 1.0000001, z: 1.0000001}
  m_Children:
  - {fileID: 1497224045}
  m_Father: {fileID: 1733908053}
  m_RootOrder: 0
  m_LocalEulerAnglesHint: {x: 0, y: 0, z: 0}
--- !u!1 &1603151323
GameObject:
  m_ObjectHideFlags: 0
  m_PrefabParentObject: {fileID: 0}
  m_PrefabInternal: {fileID: 0}
  serializedVersion: 5
  m_Component:
  - component: {fileID: 1603151325}
  - component: {fileID: 1603151324}
  m_Layer: 0
  m_Name: Directional Light (1)
  m_TagString: Untagged
  m_Icon: {fileID: 0}
  m_NavMeshLayer: 0
  m_StaticEditorFlags: 0
  m_IsActive: 1
--- !u!108 &1603151324
Light:
  m_ObjectHideFlags: 0
  m_PrefabParentObject: {fileID: 0}
  m_PrefabInternal: {fileID: 0}
  m_GameObject: {fileID: 1603151323}
  m_Enabled: 1
  serializedVersion: 8
  m_Type: 1
  m_Color: {r: 0.25, g: 0.6896552, b: 1, a: 1}
  m_Intensity: 1.9
  m_Range: 10
  m_SpotAngle: 30
  m_CookieSize: 10
  m_Shadows:
    m_Type: 1
    m_Resolution: 3
    m_CustomResolution: -1
    m_Strength: 1
    m_Bias: 0.05
    m_NormalBias: 0.4
    m_NearPlane: 0.2
  m_Cookie: {fileID: 0}
  m_DrawHalo: 0
  m_Flare: {fileID: 0}
  m_RenderMode: 0
  m_CullingMask:
    serializedVersion: 2
    m_Bits: 4294967295
  m_Lightmapping: 4
  m_AreaSize: {x: 1, y: 1}
  m_BounceIntensity: 1
  m_ColorTemperature: 6570
  m_UseColorTemperature: 0
  m_ShadowRadius: 0
  m_ShadowAngle: 0
--- !u!4 &1603151325
Transform:
  m_ObjectHideFlags: 0
  m_PrefabParentObject: {fileID: 0}
  m_PrefabInternal: {fileID: 0}
  m_GameObject: {fileID: 1603151323}
  m_LocalRotation: {x: 0.42642185, y: 0.12182157, z: 0.891706, w: -0.09046784}
  m_LocalPosition: {x: -0.139, y: 6.22, z: 3.349}
  m_LocalScale: {x: 1, y: 1, z: 1}
  m_Children: []
  m_Father: {fileID: 0}
  m_RootOrder: 3
  m_LocalEulerAnglesHint: {x: 0, y: 0, z: 0}
--- !u!1 &1733908052
GameObject:
  m_ObjectHideFlags: 0
  m_PrefabParentObject: {fileID: 121774, guid: 9f4313a771e05c64d8da7ae6bd19a19f, type: 2}
  m_PrefabInternal: {fileID: 1879720302}
  serializedVersion: 5
  m_Component:
  - component: {fileID: 1733908053}
  m_Layer: 0
  m_Name: Bip001 L Thigh
  m_TagString: Untagged
  m_Icon: {fileID: 0}
  m_NavMeshLayer: 0
  m_StaticEditorFlags: 0
  m_IsActive: 1
--- !u!4 &1733908053
Transform:
  m_ObjectHideFlags: 0
  m_PrefabParentObject: {fileID: 497050, guid: 9f4313a771e05c64d8da7ae6bd19a19f, type: 2}
  m_PrefabInternal: {fileID: 1879720302}
  m_GameObject: {fileID: 1733908052}
  m_LocalRotation: {x: -0.021586547, y: 0.998658, z: 0.020908121, w: 0.042179577}
  m_LocalPosition: {x: 0.00000014533997, y: 0.00000018773079, z: 0.111691944}
  m_LocalScale: {x: 1, y: 0.99999994, z: 0.99999994}
  m_Children:
  - {fileID: 1512868660}
  m_Father: {fileID: 420402290}
  m_RootOrder: 0
  m_LocalEulerAnglesHint: {x: 0, y: 0, z: 0}
--- !u!1 &1744219755
GameObject:
  m_ObjectHideFlags: 0
  m_PrefabParentObject: {fileID: 115758, guid: 9f4313a771e05c64d8da7ae6bd19a19f, type: 2}
  m_PrefabInternal: {fileID: 1879720302}
  serializedVersion: 5
  m_Component:
  - component: {fileID: 1744219756}
  m_Layer: 0
  m_Name: Bip001 R Thigh
  m_TagString: Untagged
  m_Icon: {fileID: 0}
  m_NavMeshLayer: 0
  m_StaticEditorFlags: 0
  m_IsActive: 1
--- !u!4 &1744219756
Transform:
  m_ObjectHideFlags: 0
  m_PrefabParentObject: {fileID: 463978, guid: 9f4313a771e05c64d8da7ae6bd19a19f, type: 2}
  m_PrefabInternal: {fileID: 1879720302}
  m_GameObject: {fileID: 1744219755}
  m_LocalRotation: {x: -0.021586519, y: 0.9986579, z: -0.020909475, w: -0.042181075}
  m_LocalPosition: {x: -0.00000014533997, y: -0.00000012111664, z: -0.111691944}
  m_LocalScale: {x: 1, y: 0.99999994, z: 0.99999994}
  m_Children:
  - {fileID: 898494949}
  m_Father: {fileID: 420402290}
  m_RootOrder: 1
  m_LocalEulerAnglesHint: {x: 0, y: 0, z: 0}
--- !u!1001 &1879720302
Prefab:
  m_ObjectHideFlags: 0
  serializedVersion: 2
  m_Modification:
    m_TransformParent: {fileID: 0}
    m_Modifications:
    - target: {fileID: 403496, guid: 9f4313a771e05c64d8da7ae6bd19a19f, type: 2}
      propertyPath: m_LocalPosition.x
      value: 0
      objectReference: {fileID: 0}
    - target: {fileID: 403496, guid: 9f4313a771e05c64d8da7ae6bd19a19f, type: 2}
      propertyPath: m_LocalPosition.y
      value: 0
      objectReference: {fileID: 0}
    - target: {fileID: 403496, guid: 9f4313a771e05c64d8da7ae6bd19a19f, type: 2}
      propertyPath: m_LocalPosition.z
      value: 0
      objectReference: {fileID: 0}
    - target: {fileID: 403496, guid: 9f4313a771e05c64d8da7ae6bd19a19f, type: 2}
      propertyPath: m_LocalRotation.x
      value: 0
      objectReference: {fileID: 0}
    - target: {fileID: 403496, guid: 9f4313a771e05c64d8da7ae6bd19a19f, type: 2}
      propertyPath: m_LocalRotation.y
      value: 0
      objectReference: {fileID: 0}
    - target: {fileID: 403496, guid: 9f4313a771e05c64d8da7ae6bd19a19f, type: 2}
      propertyPath: m_LocalRotation.z
      value: 0
      objectReference: {fileID: 0}
    - target: {fileID: 403496, guid: 9f4313a771e05c64d8da7ae6bd19a19f, type: 2}
      propertyPath: m_LocalRotation.w
      value: 1
      objectReference: {fileID: 0}
    - target: {fileID: 403496, guid: 9f4313a771e05c64d8da7ae6bd19a19f, type: 2}
      propertyPath: m_RootOrder
      value: 4
      objectReference: {fileID: 0}
    m_RemovedComponents: []
  m_ParentPrefab: {fileID: 100100000, guid: 9f4313a771e05c64d8da7ae6bd19a19f, type: 2}
  m_RootGameObject: {fileID: 1036907932}
  m_IsPrefabParent: 0
--- !u!1 &1954267201
GameObject:
  m_ObjectHideFlags: 0
  m_PrefabParentObject: {fileID: 131634, guid: 9f4313a771e05c64d8da7ae6bd19a19f, type: 2}
  m_PrefabInternal: {fileID: 1879720302}
  serializedVersion: 5
  m_Component:
  - component: {fileID: 1954267202}
  m_Layer: 0
  m_Name: Bip001 L Toe0
  m_TagString: Untagged
  m_Icon: {fileID: 0}
  m_NavMeshLayer: 0
  m_StaticEditorFlags: 0
  m_IsActive: 1
--- !u!4 &1954267202
Transform:
  m_ObjectHideFlags: 0
  m_PrefabParentObject: {fileID: 436904, guid: 9f4313a771e05c64d8da7ae6bd19a19f, type: 2}
  m_PrefabInternal: {fileID: 1879720302}
  m_GameObject: {fileID: 1954267201}
  m_LocalRotation: {x: 0.000000015454312, y: -0.000000015454312, z: -0.7071068, w: 0.7071068}
  m_LocalPosition: {x: -0.10453752, y: 0.2332749, z: 0.000000012111664}
  m_LocalScale: {x: 0.99999994, y: 1, z: 0.99999994}
  m_Children:
  - {fileID: 456729100}
  m_Father: {fileID: 1497224045}
  m_RootOrder: 0
  m_LocalEulerAnglesHint: {x: 0, y: 0, z: 0}
--- !u!1 &1981465302
GameObject:
  m_ObjectHideFlags: 0
  m_PrefabParentObject: {fileID: 102074, guid: 9f4313a771e05c64d8da7ae6bd19a19f, type: 2}
  m_PrefabInternal: {fileID: 1879720302}
  serializedVersion: 5
  m_Component:
  - component: {fileID: 1981465303}
  m_Layer: 0
  m_Name: Bip001 HeadNub
  m_TagString: Untagged
  m_Icon: {fileID: 0}
  m_NavMeshLayer: 0
  m_StaticEditorFlags: 0
  m_IsActive: 1
--- !u!4 &1981465303
Transform:
  m_ObjectHideFlags: 0
  m_PrefabParentObject: {fileID: 443834, guid: 9f4313a771e05c64d8da7ae6bd19a19f, type: 2}
  m_PrefabInternal: {fileID: 1879720302}
  m_GameObject: {fileID: 1981465302}
  m_LocalRotation: {x: -7.993605e-15, y: -7.1054265e-15, z: -5.6797973e-29, w: 1}
  m_LocalPosition: {x: -0.24751396, y: -0.000000012111664, z: 0}
  m_LocalScale: {x: 1.0000001, y: 1.0000001, z: 1}
  m_Children: []
  m_Father: {fileID: 347705511}
  m_RootOrder: 0
  m_LocalEulerAnglesHint: {x: 0, y: 0, z: 0}
--- !u!1 &2056791660
GameObject:
  m_ObjectHideFlags: 0
  m_PrefabParentObject: {fileID: 196216, guid: 9f4313a771e05c64d8da7ae6bd19a19f, type: 2}
  m_PrefabInternal: {fileID: 1879720302}
  serializedVersion: 5
  m_Component:
  - component: {fileID: 2056791661}
  m_Layer: 0
  m_Name: Bip001 R Foot
  m_TagString: Untagged
  m_Icon: {fileID: 0}
  m_NavMeshLayer: 0
  m_StaticEditorFlags: 0
  m_IsActive: 1
--- !u!4 &2056791661
Transform:
  m_ObjectHideFlags: 0
  m_PrefabParentObject: {fileID: 463466, guid: 9f4313a771e05c64d8da7ae6bd19a19f, type: 2}
  m_PrefabInternal: {fileID: 1879720302}
  m_GameObject: {fileID: 2056791660}
  m_LocalRotation: {x: -0.02484864, y: -0.03998634, z: -0.0740629, w: 0.99614173}
  m_LocalPosition: {x: -0.24324629, y: 0, z: 0.000000012111664}
  m_LocalScale: {x: 1, y: 1, z: 1}
  m_Children:
  - {fileID: 684671209}
  m_Father: {fileID: 898494949}
  m_RootOrder: 0
  m_LocalEulerAnglesHint: {x: 0, y: 0, z: 0}
